 {
  "name": "Revisions",
  "id": "revisions",
  "apiVersion": 1,
  "data": [
    {
      "author": "Miroslav Grubic",
      "date": "2021-07-16",
      "summary": "Initial draft for Archerfish BMS."
    },
    {
      "author": "Miroslav Grubic",
      "date": "2021-07-26",
      "summary": "Added BmsTestFaultState to Bms07-FaultsA. Changed type of faultUnableToCharge fault, to bBmsFaultBitmap. Removed generic BMS state OnlineOverride. Added a variable to Bms09-RequestStandbyMode, Bms0A-RequestOnlineMode and Bms0B-RequestRecoveryToStandbyMode."
    },
    {
      "author": "Miroslav Grubic",
      "date": "2022-01-25",
      "summary": "Added Overtemp and External ADC faults to Bms08-FaultsB."
    },
    {
      "author": "Miroslav Grubic",
      "date": "2022-02-03",
      "summary": "Added Bms21-AllowToHeat and Bms22-AllowToHeatRequest. Removed Positive and Negative Ground Faults and made it as one Ground Fault"
    },
    {
      "author": "Miroslav Grubic",
      "date": "2022-02-14",
      "summary": "Added BmsF1-FirmwareVersion. Removed BmsF0-AlarmLimits. Changed QueryMessage ID to 0x18FFE400."
    },
    {
      "author": "Miroslav Grubic",
      "date": "2022-12-13",
      "summary": "Removed Bms30-TestVisualIndicator. Removed BmsSsrOvertempFaultState from Bms08-FaultsB. Added coldplate temp readings to Bms4F-ControlBoardTemps."
    },
    {
      "author": "Miroslav Grubic",
      "date": "2022-06-08",
      "summary": "Updated values for the current alarm template."
    }
  ]
}